<?xml version="1.0" encoding="UTF-8" standalone="no"?>
<!-- Created with Inkscape (http://www.inkscape.org/) -->

<svg
   xmlns:dc="http://purl.org/dc/elements/1.1/"
   xmlns:cc="http://creativecommons.org/ns#"
   xmlns:rdf="http://www.w3.org/1999/02/22-rdf-syntax-ns#"
   xmlns:svg="http://www.w3.org/2000/svg"
   xmlns="http://www.w3.org/2000/svg"
   xmlns:xlink="http://www.w3.org/1999/xlink"
   xmlns:sodipodi="http://sodipodi.sourceforge.net/DTD/sodipodi-0.dtd"
   xmlns:inkscape="http://www.inkscape.org/namespaces/inkscape"
   width="1400"
   height="800"
   viewBox="0 0 1400.00001201672 799.999975951855"
   id="svg14474"
   version="1.1"
   inkscape:version="0.91 r13725"
   sodipodi:docname="base4.svg">
  <defs
     id="defs14476">
    <linearGradient
       inkscape:collect="always"
       id="linearGradient4406">
      <stop
         style="stop-color: #ded7c7; stop-opacity: 0"
         offset="0"
         id="stop4408" />
      <stop
         id="stop4410"
         offset="0.3"
         style="stop-color: #ded7c7; stop-opacity: 0" />
      <stop
         id="stop4412"
         offset="0.3"
         style="stop-color: #ded7c7; stop-opacity: 1" />
      <stop
         style="stop-color: #ded7c7; stop-opacity: 1"
         offset="0.8"
         id="stop4414" />
      <stop
         id="stop4416"
         offset="0.8"
         style="stop-color: #ded7c7; stop-opacity: 0" />
      <stop
         style="stop-color: #ded7c7; stop-opacity: 0"
         offset="1"
         id="stop4418" />
    </linearGradient>
    <linearGradient
       id="linearGradient4392"
       inkscape:collect="always">
      <stop
         id="stop4394"
         offset="0"
         style="stop-color: #ded7c7; stop-opacity: 1" />
      <stop
         style="stop-color: #ded7c7; stop-opacity: 1"
         offset="0.3"
         id="stop4396" />
      <stop
         style="stop-color: #ded7c7; stop-opacity: 0"
         offset="0.3"
         id="stop4398" />
      <stop
         id="stop4400"
         offset="0.8"
         style="stop-color: #ded7c7; stop-opacity: 0" />
      <stop
         style="stop-color: #ded7c7; stop-opacity: 1"
         offset="0.8"
         id="stop4402" />
      <stop
         id="stop4404"
         offset="1"
         style="stop-color: #ded7c7; stop-opacity: 1" />
    </linearGradient>
    <linearGradient
       id="linearGradient4382"
       inkscape:collect="always">
      <stop
         id="stop4384"
         offset="0"
         style="stop-color: #ded7c7; stop-opacity: 0" />
      <stop
         style="stop-color: #ded7c7; stop-opacity: 0"
         offset="0.5"
         id="stop4386" />
      <stop
         id="stop4388"
         offset="0.5"
         style="stop-color: #ded7c7; stop-opacity: 1" />
      <stop
         id="stop4390"
         offset="1"
         style="stop-color: #ded7c7; stop-opacity: 1" />
    </linearGradient>
    <linearGradient
       inkscape:collect="always"
       id="linearGradient4372">
      <stop
         style="stop-color: #ded7c7; stop-opacity: 1"
         offset="0"
         id="stop4374" />
      <stop
         id="stop4376"
         offset="0.5"
         style="stop-color: #ded7c7; stop-opacity: 1" />
      <stop
         style="stop-color: #ded7c7; stop-opacity: 0"
         offset="0.5"
         id="stop4378" />
      <stop
         style="stop-color: #ded7c7; stop-opacity: 0"
         offset="1"
         id="stop4380" />
    </linearGradient>
    <linearGradient
       inkscape:collect="always"
       id="linearGradient4358">
      <stop
         style="stop-color: #3f3009; stop-opacity: 0"
         offset="0"
         id="stop4360" />
      <stop
         id="stop4362"
         offset="0.3"
         style="stop-color: #3f3009; stop-opacity: 0" />
      <stop
         id="stop4364"
         offset="0.3"
         style="stop-color: #3f3009; stop-opacity: 1" />
      <stop
         style="stop-color: #3f3009; stop-opacity: 1"
         offset="0.8"
         id="stop4366" />
      <stop
         id="stop4368"
         offset="0.8"
         style="stop-color: #3f3009; stop-opacity: 0" />
      <stop
         style="stop-color: #3f3009; stop-opacity: 0"
         offset="1"
         id="stop4370" />
    </linearGradient>
    <linearGradient
       id="linearGradient4344"
       inkscape:collect="always">
      <stop
         id="stop4346"
         offset="0"
         style="stop-color: #3f3009; stop-opacity: 1" />
      <stop
         style="stop-color: #3f3009; stop-opacity: 1"
         offset="0.3"
         id="stop4348" />
      <stop
         style="stop-color: #3f3009; stop-opacity: 0"
         offset="0.3"
         id="stop4350" />
      <stop
         id="stop4352"
         offset="0.8"
         style="stop-color: #3f3009; stop-opacity: 0" />
      <stop
         style="stop-color: #3f3009; stop-opacity: 1"
         offset="0.8"
         id="stop4354" />
      <stop
         id="stop4356"
         offset="1"
         style="stop-color: #3f3009; stop-opacity: 1" />
    </linearGradient>
    <linearGradient
       id="linearGradient4334"
       inkscape:collect="always">
      <stop
         id="stop4336"
         offset="0"
         style="stop-color: #3f3009; stop-opacity: 0" />
      <stop
         style="stop-color: #3f3009; stop-opacity: 0"
         offset="0.5"
         id="stop4338" />
      <stop
         id="stop4340"
         offset="0.5"
         style="stop-color: #3f3009; stop-opacity: 1" />
      <stop
         id="stop4342"
         offset="1"
         style="stop-color: #3f3009; stop-opacity: 1" />
    </linearGradient>
    <linearGradient
       inkscape:collect="always"
       id="linearGradient4324">
      <stop
         style="stop-color: #3f3009; stop-opacity: 1"
         offset="0"
         id="stop4326" />
      <stop
         id="stop4328"
         offset="0.5"
         style="stop-color: #3f3009; stop-opacity: 1" />
      <stop
         style="stop-color: #3f3009; stop-opacity: 0"
         offset="0.5"
         id="stop4330" />
      <stop
         style="stop-color: #3f3009; stop-opacity: 0"
         offset="1"
         id="stop4332" />
    </linearGradient>
    <linearGradient
       inkscape:collect="always"
       id="linearGradient4316">
      <stop
         style="stop-color: #ded7c7; stop-opacity: 0"
         offset="0"
         id="stop4318" />
      <stop
         id="stop4320"
         offset="0.5"
         style="stop-color: #ded7c7; stop-opacity: 1" />
      <stop
         style="stop-color: #ded7c7; stop-opacity: 0"
         offset="1"
         id="stop4322" />
    </linearGradient>
    <linearGradient
       inkscape:collect="always"
       id="linearGradient4308">
      <stop
         style="stop-color: #3f3009; stop-opacity: 0"
         offset="0"
         id="stop4310" />
      <stop
         id="stop4312"
         offset="0.5"
         style="stop-color: #3f3009; stop-opacity: 1" />
      <stop
         style="stop-color: #3f3009; stop-opacity: 0"
         offset="1"
         id="stop4314" />
    </linearGradient>
    <linearGradient
       id="linearGradient4300"
       inkscape:collect="always">
      <stop
         id="stop4302"
         offset="0"
         style="stop-color: #ded7c7; stop-opacity: 1" />
      <stop
         style="stop-color: #ded7c7; stop-opacity: 0"
         offset="0.5"
         id="stop4304" />
      <stop
         id="stop4306"
         offset="1"
         style="stop-color: #ded7c7; stop-opacity: 1" />
    </linearGradient>
    <linearGradient
       id="linearGradient4292"
       inkscape:collect="always">
      <stop
         id="stop4294"
         offset="0"
         style="stop-color: #3f3009; stop-opacity: 1" />
      <stop
         style="stop-color: #3f3009; stop-opacity: 0"
         offset="0.5"
         id="stop4296" />
      <stop
         id="stop4298"
         offset="1"
         style="stop-color: #3f3009; stop-opacity: 1" />
    </linearGradient>
    <linearGradient
       id="linearGradient4286"
       inkscape:collect="always">
      <stop
         id="stop4288"
         offset="0"
         style="stop-color: #ded7c7; stop-opacity: 0" />
      <stop
         id="stop4290"
         offset="1"
         style="stop-color: #ded7c7; stop-opacity: 1" />
    </linearGradient>
    <linearGradient
       id="linearGradient4280"
       inkscape:collect="always">
      <stop
         id="stop4282"
         offset="0"
         style="stop-color: #3f3009; stop-opacity: 0" />
      <stop
         id="stop4284"
         offset="1"
         style="stop-color: #3f3009; stop-opacity: 1" />
    </linearGradient>
    <linearGradient
       inkscape:collect="always"
       id="linearGradient4274">
      <stop
         style="stop-color: #ded7c7; stop-opacity: 1"
         offset="0"
         id="stop4276" />
      <stop
         style="stop-color: #ded7c7; stop-opacity: 0"
         offset="1"
         id="stop4278" />
    </linearGradient>
    <linearGradient
       inkscape:collect="always"
       id="linearGradient4268">
      <stop
         style="stop-color: #3f3009; stop-opacity: 1"
         offset="0"
         id="stop4270" />
      <stop
         style="stop-color: #3f3009; stop-opacity: 0"
         offset="1"
         id="stop4272" />
    </linearGradient>
    <linearGradient
       inkscape:collect="always"
       id="linearGradient4206">
      <stop
         style="stop-color: #3f3009; stop-opacity: 1"
         offset="0"
         id="stop4208" />
      <stop
         style="stop-color: #3f3009; stop-opacity: 1"
         offset="1"
         id="stop4210" />
    </linearGradient>
    <linearGradient
       id="linearGradient5655"
       inkscape:collect="always">
      <stop
         id="stop5657"
         offset="0"
         style="stop-color: #ded7c7; stop-opacity: 1" />
      <stop
         style="stop-color: #3f3009; stop-opacity: 1"
         offset="0.5"
         id="stop5659" />
      <stop
         id="stop5661"
         offset="1"
         style="stop-color: #ded7c7; stop-opacity: 1" />
    </linearGradient>
    <linearGradient
       inkscape:collect="always"
       id="linearGradient5641">
      <stop
         style="stop-color: #3f3009; stop-opacity: 1"
         offset="0"
         id="stop5643" />
      <stop
         id="stop5645"
         offset="0.3"
         style="stop-color: #3f3009; stop-opacity: 1" />
      <stop
         id="stop5647"
         offset="0.3"
         style="stop-color: #ded7c7; stop-opacity: 1" />
      <stop
         style="stop-color: #ded7c7; stop-opacity: 1"
         offset="0.8"
         id="stop5649" />
      <stop
         id="stop5651"
         offset="0.8"
         style="stop-color: #3f3009; stop-opacity: 1" />
      <stop
         style="stop-color: #3f3009; stop-opacity: 1"
         offset="1"
         id="stop5653" />
    </linearGradient>
    <linearGradient
       id="linearGradient5635"
       inkscape:collect="always">
      <stop
         id="stop5637"
         offset="0"
         style="stop-color: #3f3009; stop-opacity: 1" />
      <stop
         id="stop5639"
         offset="1"
         style="stop-color: #ded7c7; stop-opacity: 1" />
    </linearGradient>
    <linearGradient
       id="linearGradient5625"
       inkscape:collect="always">
      <stop
         id="stop5627"
         offset="0"
         style="stop-color: #3f3009; stop-opacity: 1" />
      <stop
         style="stop-color: #3f3009; stop-opacity: 1"
         offset="0.5"
         id="stop5629" />
      <stop
         id="stop5631"
         offset="0.5"
         style="stop-color: #ded7c7; stop-opacity: 1" />
      <stop
         id="stop5633"
         offset="1"
         style="stop-color: #ded7c7; stop-opacity: 1" />
    </linearGradient>
    <linearGradient
       id="linearGradient5619"
       inkscape:collect="always">
      <stop
         id="stop5621"
         offset="0"
         style="stop-color: #ded7c7; stop-opacity: 1" />
      <stop
         id="stop5623"
         offset="1"
         style="stop-color: #ded7c7; stop-opacity: 1" />
    </linearGradient>
    <linearGradient
       inkscape:collect="always"
       xlink:href="#linearGradient4358"
       id="linearGradient4653"
       gradientUnits="userSpaceOnUse"
       gradientTransform="translate(-462.3763182106034,-1167.601749505942)"
       x1="662.3763427734375"
       y1="1767.601806640625"
       x2="862.3763427734375"
       y2="1967.601806640625" />
    <linearGradient
       id="linearGradient4669"
       inkscape:collect="always">
      <stop
         id="stop4671"
         offset="0"
         style="stop-color: #ded7c7; stop-opacity: 1" />
      <stop
         style="stop-color: #ded7c7; stop-opacity: 1"
         offset="0.3"
         id="stop4677" />
      <stop
         style="stop-color: #3f3009; stop-opacity: 1"
         offset="0.3"
         id="stop4673" />
      <stop
         id="stop4679"
         offset="0.8"
         style="stop-color: #3f3009; stop-opacity: 1" />
      <stop
         style="stop-color: #ded7c7; stop-opacity: 1"
         offset="0.8"
         id="stop4681" />
      <stop
         id="stop4675"
         offset="1"
         style="stop-color: #ded7c7; stop-opacity: 1" />
    </linearGradient>
    <linearGradient
       inkscape:collect="always"
       xlink:href="#linearGradient4344"
       id="linearGradient4649"
       gradientUnits="userSpaceOnUse"
       gradientTransform="translate(-662.3763182106033,-1367.601749505942)"
       x1="862.3763427734375"
       y1="1767.601806640625"
       x2="1062.376342773438"
       y2="1967.601806640625" />
    <linearGradient
       inkscape:collect="always"
       xlink:href="#linearGradient4292"
       id="linearGradient4587"
       x1="862.3763427734375"
       y1="1767.601806640625"
       x2="1062.376342773438"
       y2="1967.601806640625"
       gradientUnits="userSpaceOnUse"
       gradientTransform="translate(-62.37631821060347,-1367.601749505942)" />
    <linearGradient
       inkscape:collect="always"
       id="linearGradient4581">
      <stop
         style="stop-color: #3f3009; stop-opacity: 1"
         offset="0"
         id="stop4583" />
      <stop
         id="stop4589"
         offset="0.5"
         style="stop-color: #ded7c7; stop-opacity: 1" />
      <stop
         style="stop-color: #3f3009; stop-opacity: 1"
         offset="1"
         id="stop4585" />
    </linearGradient>
    <linearGradient
       inkscape:collect="always"
       xlink:href="#linearGradient4308"
       id="linearGradient4577"
       x1="662.3763427734375"
       y1="1767.601806640625"
       x2="862.3763427734375"
       y2="1967.601806640625"
       gradientUnits="userSpaceOnUse"
       gradientTransform="translate(137.6236817893974,-1167.601749505942)" />
    <linearGradient
       inkscape:collect="always"
       xlink:href="#linearGradient4324"
       id="linearGradient4545"
       x1="62.37631988525391"
       y1="1767.601806640625"
       x2="262.3763122558594"
       y2="1967.601806640625"
       gradientUnits="userSpaceOnUse"
       gradientTransform="translate(137.6236817893962,-1767.601749505942)" />
    <linearGradient
       inkscape:collect="always"
       id="linearGradient4539">
      <stop
         style="stop-color: #ded7c7; stop-opacity: 1"
         offset="0"
         id="stop4541" />
      <stop
         id="stop4547"
         offset="0.5"
         style="stop-color: #ded7c7; stop-opacity: 1" />
      <stop
         style="stop-color: #3f3009; stop-opacity: 1"
         offset="0.5"
         id="stop4549" />
      <stop
         style="stop-color: #3f3009; stop-opacity: 1"
         offset="1"
         id="stop4543" />
    </linearGradient>
    <linearGradient
       inkscape:collect="always"
       xlink:href="#linearGradient4334"
       id="linearGradient4533"
       x1="-137.6236877441406"
       y1="1767.601806640625"
       x2="62.37631988525391"
       y2="1967.601806640625"
       gradientUnits="userSpaceOnUse"
       gradientTransform="translate(337.6236817893957,-1567.601749505942)" />
    <linearGradient
       inkscape:collect="always"
       xlink:href="#linearGradient4268"
       id="linearGradient4517"
       x1="-337.6236877441406"
       y1="1767.601806640625"
       x2="-137.6236877441406"
       y2="1967.601806640625"
       gradientUnits="userSpaceOnUse"
       gradientTransform="translate(1137.623681789395,-1767.601749505942)" />
    <linearGradient
       inkscape:collect="always"
       id="linearGradient4511">
      <stop
         style="stop-color: #ded7c7; stop-opacity: 1"
         offset="0"
         id="stop4513" />
      <stop
         style="stop-color: #3f3009; stop-opacity: 1"
         offset="1"
         id="stop4515" />
    </linearGradient>
    <linearGradient
       inkscape:collect="always"
       xlink:href="#linearGradient4280"
       id="linearGradient4501"
       x1="-537.6236572265625"
       y1="1767.601806640625"
       x2="-337.6236877441406"
       y2="1967.601806640625"
       gradientUnits="userSpaceOnUse"
       gradientTransform="translate(1337.623681789395,-1567.60174950594)" />
    <linearGradient
       inkscape:collect="always"
       xlink:href="#linearGradient5619"
       id="linearGradient4485"
       x1="-737.6236572265625"
       y1="1767.601806640625"
       x2="-537.6236572265625"
       y2="1967.601806640625"
       gradientUnits="userSpaceOnUse"
       gradientTransform="translate(737.6236817893959,-1167.601749505942)" />

    <pattern
       patternTransform="translate(0,784.0000006157579)"
       id="pattern5299"
       xlink:href="#pattern4560-0"
       inkscape:collect="always" />
    <pattern
       patternUnits="userSpaceOnUse"
       width="16"
       height="16"
       patternTransform="translate(0,1584.000000615758)"
       id="pattern4560-0">
      <g
         id="g4556-8"
         transform="translate(0,-1584)">
        <path
           sodipodi:nodetypes="ccccccc"
           inkscape:connector-curvature="0"
           id="rect4439-4"
           d="M 8 1584 l 8 0 l 0 8 l -8 8 l -8 0 l 0 -8 z"
           style="fill: #666666; fill-rule: nonzero; stroke: none; stroke-width: 1; stroke-linecap: round; stroke-linejoin: round; stroke-dasharray: none; stroke-dashoffset: 0; color: #ded7c7; clip-rule: nonzero; display: inline; overflow: visible; visibility: visible; opacity: 1; isolation: auto; mix-blend-mode: normal; color-interpolation: sRGB; color-interpolation-filters: linearRGB; solid-color: #ded7c7; solid-opacity: 1; fill-opacity: 1; stroke-miterlimit: 4.0476899147; stroke-opacity: 1; marker: none; color-rendering: auto; image-rendering: auto; shape-rendering: auto; text-rendering: auto; enable-background: accumulate" />
        <path
           sodipodi:nodetypes="ccccccc"
           inkscape:connector-curvature="0"
           id="path4444-9"
           d="M 16 1592 l 0 8 l -8 0 l 0 -16 l -8 0 l 0 8 z"
           style="fill: #999999; fill-rule: nonzero; stroke: none; stroke-width: 1; stroke-linecap: round; stroke-linejoin: round; stroke-dasharray: none; stroke-dashoffset: 0; color: #ded7c7; clip-rule: nonzero; display: inline; overflow: visible; visibility: visible; opacity: 1; isolation: auto; mix-blend-mode: normal; color-interpolation: sRGB; color-interpolation-filters: linearRGB; solid-color: #ded7c7; solid-opacity: 1; fill-opacity: 1; stroke-miterlimit: 4.0476899147; stroke-opacity: 1; marker: none; color-rendering: auto; image-rendering: auto; shape-rendering: auto; text-rendering: auto; enable-background: accumulate" />
      </g>
    </pattern>

    <linearGradient
       inkscape:collect="always"
       xlink:href="#linearGradient4206"
       id="linearGradient4204"
       gradientUnits="userSpaceOnUse"
       gradientTransform="translate(737.6236817893957,-1567.601749505942)"
       x1="-737.6236572265625"
       y1="1767.601806640625"
       x2="-537.6236572265625"
       y2="1967.601806640625" />
    <linearGradient
       inkscape:collect="always"
       xlink:href="#linearGradient4316"
       id="linearGradient3420"
       gradientUnits="userSpaceOnUse"
       gradientTransform="translate(337.6236817893965,-1367.601749505942)"
       x1="662.3763427734375"
       y1="1767.601806640625"
       x2="862.3763427734375"
       y2="1967.601806640625" />
    <linearGradient
       inkscape:collect="always"
       xlink:href="#linearGradient4406"
       id="linearGradient3422"
       gradientUnits="userSpaceOnUse"
       gradientTransform="translate(-262.3763182106032,-1367.601749505942)"
       x1="662.3763427734375"
       y1="1767.601806640625"
       x2="862.3763427734375"
       y2="1967.601806640625" />
    <linearGradient
       inkscape:collect="always"
       xlink:href="#linearGradient4300"
       id="linearGradient3424"
       gradientUnits="userSpaceOnUse"
       gradientTransform="translate(137.6236817893964,-1167.601749505942)"
       x1="862.3763427734375"
       y1="1767.601806640625"
       x2="1062.376342773438"
       y2="1967.601806640625" />
    <linearGradient
       inkscape:collect="always"
       xlink:href="#linearGradient4392"
       id="linearGradient3426"
       gradientUnits="userSpaceOnUse"
       gradientTransform="translate(-462.376318210603,-1167.601749505942)"
       x1="862.3763427734375"
       y1="1767.601806640625"
       x2="1062.376342773438"
       y2="1967.601806640625" />
    <linearGradient
       inkscape:collect="always"
       xlink:href="#linearGradient4286"
       id="linearGradient3428"
       gradientUnits="userSpaceOnUse"
       gradientTransform="translate(1537.623681789395,-1767.60174950594)"
       x1="-537.6236572265625"
       y1="1767.601806640625"
       x2="-337.6236877441406"
       y2="1967.601806640625" />
    <linearGradient
       inkscape:collect="always"
       xlink:href="#linearGradient4382"
       id="linearGradient3430"
       gradientUnits="userSpaceOnUse"
       gradientTransform="translate(537.6236817893961,-1767.601749505942)"
       x1="-137.6236877441406"
       y1="1767.601806640625"
       x2="62.37631988525391"
       y2="1967.601806640625" />
    <linearGradient
       inkscape:collect="always"
       xlink:href="#linearGradient4274"
       id="linearGradient3432"
       gradientUnits="userSpaceOnUse"
       gradientTransform="translate(1337.623681789395,-1567.601749505942)"
       x1="-337.6236877441406"
       y1="1767.601806640625"
       x2="-137.6236877441406"
       y2="1967.601806640625" />
    <linearGradient
       inkscape:collect="always"
       xlink:href="#linearGradient4372"
       id="linearGradient3434"
       gradientUnits="userSpaceOnUse"
       gradientTransform="translate(337.6236817893964,-1567.601749505942)"
       x1="62.37631988525391"
       y1="1767.601806640625"
       x2="262.3763122558594"
       y2="1967.601806640625" />
    <linearGradient
       inkscape:collect="always"
       xlink:href="#linearGradient5655"
       id="linearGradient3452"
       gradientUnits="userSpaceOnUse"
       gradientTransform="translate(537.6236817893963,-1167.601749505942)"
       x1="662.3763427734375"
       y1="1767.601806640625"
       x2="862.3763427734375"
       y2="1967.601806640625" />
    <linearGradient
       inkscape:collect="always"
       xlink:href="#linearGradient4669"
       id="linearGradient3454"
       gradientUnits="userSpaceOnUse"
       gradientTransform="translate(-62.37631821060353,-1167.601749505942)"
       x1="662.3763427734375"
       y1="1767.601806640625"
       x2="862.3763427734375"
       y2="1967.601806640625" />
    <linearGradient
       inkscape:collect="always"
       xlink:href="#linearGradient4581"
       id="linearGradient3456"
       gradientUnits="userSpaceOnUse"
       gradientTransform="translate(337.623681789396,-1367.601749505942)"
       x1="862.3763427734375"
       y1="1767.601806640625"
       x2="1062.376342773438"
       y2="1967.601806640625" />
    <linearGradient
       inkscape:collect="always"
       xlink:href="#linearGradient5641"
       id="linearGradient3458"
       gradientUnits="userSpaceOnUse"
       gradientTransform="translate(-262.3763182106031,-1367.601749505942)"
       x1="862.3763427734375"
       y1="1767.601806640625"
       x2="1062.376342773438"
       y2="1967.601806640625" />
    <linearGradient
       inkscape:collect="always"
       xlink:href="#linearGradient4511"
       id="linearGradient3460"
       gradientUnits="userSpaceOnUse"
       gradientTransform="translate(1737.623681789395,-1567.60174950594)"
       x1="-537.6236572265625"
       y1="1767.601806640625"
       x2="-337.6236877441406"
       y2="1967.601806640625" />
    <linearGradient
       inkscape:collect="always"
       xlink:href="#linearGradient4539"
       id="linearGradient3462"
       gradientUnits="userSpaceOnUse"
       gradientTransform="translate(737.6236817893956,-1567.601749505942)"
       x1="-137.6236877441406"
       y1="1767.601806640625"
       x2="62.37631988525391"
       y2="1967.601806640625" />
    <linearGradient
       inkscape:collect="always"
       xlink:href="#linearGradient5635"
       id="linearGradient3464"
       gradientUnits="userSpaceOnUse"
       gradientTransform="translate(1537.623681789395,-1767.601749505942)"
       x1="-337.6236877441406"
       y1="1767.601806640625"
       x2="-137.6236877441406"
       y2="1967.601806640625" />
    <linearGradient
       inkscape:collect="always"
       xlink:href="#linearGradient5625"
       id="linearGradient3466"
       gradientUnits="userSpaceOnUse"
       gradientTransform="translate(537.623681789396,-1767.601749505942)"
       x1="62.37631988525391"
       y1="1767.601806640625"
       x2="262.3763122558594"
       y2="1967.601806640625" />
  </defs>
  <sodipodi:namedview
     id="base"
     pagecolor="#013dff"
     bordercolor="#a5cfff"
     borderopacity="1"
     inkscape:pageopacity="1"
     inkscape:pageshadow="2"
     inkscape:zoom="0.69375"
     inkscape:cx="700"
     inkscape:cy="400"
     inkscape:document-units="px"
     inkscape:current-layer="svg14474"
     showgrid="false"
     inkscape:object-nodes="true"
     inkscape:snap-smooth-nodes="true"
     inkscape:window-width="1366"
     inkscape:window-height="705"
     inkscape:window-x="-8"
     inkscape:window-y="-8"
     inkscape:window-maximized="1"
     borderlayer="true"
     inkscape:showpageshadow="false"
     guidecolor="#01ffd2"
     guideopacity="1"
     guidehicolor="#fff000"
     guidehiopacity="1"
     showguides="false"
     inkscape:guide-bbox="true"
     fit-margin-top="0"
     fit-margin-left="0"
     fit-margin-right="0"
     fit-margin-bottom="0"
     units="px" />
  <metadata
     id="metadata14479">
    <rdf:RDF>
      <cc:Work
         rdf:about="">
        <dc:format>image/svg+xml</dc:format>
        <dc:type
           rdf:resource="http://purl.org/dc/dcmitype/StillImage" />
        <dc:title></dc:title>
        <dc:date>2016</dc:date>
        <dc:creator>
          <cc:Agent>
            <dc:title>Lazur URH</dc:title>
          </cc:Agent>
        </dc:creator>
      </cc:Work>
    </rdf:RDF>
  </metadata>
  <path
     style="fill: url(#pattern5299); fill-rule: nonzero; stroke: none; stroke-width: 1; stroke-linecap: round; stroke-linejoin: round; stroke-dasharray: none; stroke-dashoffset: 0; color: #ded7c7; clip-rule: nonzero; display: inline; overflow: visible; visibility: visible; opacity: 1; isolation: auto; mix-blend-mode: normal; color-interpolation: sRGB; color-interpolation-filters: linearRGB; solid-color: #ded7c7; solid-opacity: 1; fill-opacity: 1; stroke-miterlimit: 4.0476899147; stroke-opacity: 1; marker: none; color-rendering: auto; image-rendering: auto; shape-rendering: auto; text-rendering: auto; enable-background: accumulate"
     d="M 0 0 l 1400 0 l 0 800 l -1400 0 z"
     id="path4683"
     inkscape:connector-curvature="0"
     sodipodi:nodetypes="ccccc" />
  <path
     style="fill: url(#linearGradient3452); fill-rule: nonzero; stroke: none; stroke-width: 1; stroke-linecap: round; stroke-linejoin: round; stroke-dasharray: none; stroke-dashoffset: 0; color: #ded7c7; clip-rule: nonzero; display: inline; overflow: visible; visibility: visible; opacity: 1; isolation: auto; mix-blend-mode: normal; color-interpolation: sRGB; color-interpolation-filters: linearRGB; solid-color: #ded7c7; solid-opacity: 1; fill-opacity: 1; stroke-miterlimit: 10; stroke-opacity: 1; marker: none; color-rendering: auto; image-rendering: auto; shape-rendering: auto; text-rendering: auto; enable-background: accumulate"
     d="M 1200 600 l 200 0 l 0 200 l -200 0 z"
     id="path3436"
     inkscape:connector-curvature="0"
     sodipodi:nodetypes="ccccc" />
  <path
     sodipodi:nodetypes="ccccc"
     style="fill: url(#linearGradient3424); fill-rule: nonzero; stroke: none; stroke-width: 1; stroke-linecap: round; stroke-linejoin: round; stroke-dasharray: none; stroke-dashoffset: 0; color: #ded7c7; clip-rule: nonzero; display: inline; overflow: visible; visibility: visible; opacity: 1; isolation: auto; mix-blend-mode: normal; color-interpolation: sRGB; color-interpolation-filters: linearRGB; solid-color: #ded7c7; solid-opacity: 1; fill-opacity: 1; stroke-miterlimit: 10; stroke-opacity: 1; marker: none; color-rendering: auto; image-rendering: auto; shape-rendering: auto; text-rendering: auto; enable-background: accumulate"
     d="M 1000 600 l 200 0 l 0 200 l -200 0 z"
     id="path3408"
     inkscape:connector-curvature="0" />
  <path
     style="fill: url(#linearGradient4577); fill-rule: nonzero; stroke: none; stroke-width: 1; stroke-linecap: round; stroke-linejoin: round; stroke-dasharray: none; stroke-dashoffset: 0; color: #ded7c7; clip-rule: nonzero; display: inline; overflow: visible; visibility: visible; opacity: 1; isolation: auto; mix-blend-mode: normal; color-interpolation: sRGB; color-interpolation-filters: linearRGB; solid-color: #ded7c7; solid-opacity: 1; fill-opacity: 1; stroke-miterlimit: 10; stroke-opacity: 1; marker: none; color-rendering: auto; image-rendering: auto; shape-rendering: auto; text-rendering: auto; enable-background: accumulate"
     d="M 800 600 l 200 0 l 0 200 l -200 0 z"
     id="path4449"
     inkscape:connector-curvature="0"
     sodipodi:nodetypes="ccccc" />
  <path
     inkscape:connector-curvature="0"
     id="path3438"
     d="M 600 600 l 200 0 l 0 200 l -200 0 z"
     style="fill: url(#linearGradient3454); fill-rule: nonzero; stroke: none; stroke-width: 1; stroke-linecap: round; stroke-linejoin: round; stroke-dasharray: none; stroke-dashoffset: 0; color: #ded7c7; clip-rule: nonzero; display: inline; overflow: visible; visibility: visible; opacity: 1; isolation: auto; mix-blend-mode: normal; color-interpolation: sRGB; color-interpolation-filters: linearRGB; solid-color: #ded7c7; solid-opacity: 1; fill-opacity: 1; stroke-miterlimit: 10; stroke-opacity: 1; marker: none; color-rendering: auto; image-rendering: auto; shape-rendering: auto; text-rendering: auto; enable-background: accumulate"
     sodipodi:nodetypes="ccccc" />
  <path
     sodipodi:nodetypes="ccccc"
     inkscape:connector-curvature="0"
     id="path3410"
     d="M 400 600 l 200 0 l 0 200 l -200 0 z"
     style="fill: url(#linearGradient3426); fill-rule: nonzero; stroke: none; stroke-width: 1; stroke-linecap: round; stroke-linejoin: round; stroke-dasharray: none; stroke-dashoffset: 0; color: #ded7c7; clip-rule: nonzero; display: inline; overflow: visible; visibility: visible; opacity: 1; isolation: auto; mix-blend-mode: normal; color-interpolation: sRGB; color-interpolation-filters: linearRGB; solid-color: #ded7c7; solid-opacity: 1; fill-opacity: 1; stroke-miterlimit: 10; stroke-opacity: 1; marker: none; color-rendering: auto; image-rendering: auto; shape-rendering: auto; text-rendering: auto; enable-background: accumulate" />
  <path
     inkscape:connector-curvature="0"
     id="path4651"
     d="M 200 600 l 200 0 l 0 200 l -200 0 z"
     style="fill: url(#linearGradient4653); fill-rule: nonzero; stroke: none; stroke-width: 1; stroke-linecap: round; stroke-linejoin: round; stroke-dasharray: none; stroke-dashoffset: 0; color: #ded7c7; clip-rule: nonzero; display: inline; overflow: visible; visibility: visible; opacity: 1; isolation: auto; mix-blend-mode: normal; color-interpolation: sRGB; color-interpolation-filters: linearRGB; solid-color: #ded7c7; solid-opacity: 1; fill-opacity: 1; stroke-miterlimit: 10; stroke-opacity: 1; marker: none; color-rendering: auto; image-rendering: auto; shape-rendering: auto; text-rendering: auto; enable-background: accumulate"
     sodipodi:nodetypes="ccccc" />
  <path
     style="fill: url(#linearGradient4485); fill-rule: nonzero; stroke: none; stroke-width: 1; stroke-linecap: round; stroke-linejoin: round; stroke-dasharray: none; stroke-dashoffset: 0; color: #ded7c7; clip-rule: nonzero; display: inline; overflow: visible; visibility: visible; opacity: 1; isolation: auto; mix-blend-mode: normal; color-interpolation: sRGB; color-interpolation-filters: linearRGB; solid-color: #ded7c7; solid-opacity: 1; fill-opacity: 1; stroke-miterlimit: 10; stroke-opacity: 1; marker: none; color-rendering: auto; image-rendering: auto; shape-rendering: auto; text-rendering: auto; enable-background: accumulate"
     d="M 0 600 l 200 0 l 0 200 l -200 0 z"
     id="path4421"
     inkscape:connector-curvature="0"
     sodipodi:nodetypes="ccccc" />
  <path
     inkscape:connector-curvature="0"
     id="path3440"
     d="M 1200 400 l 200 0 l 0 200 l -200 0 z"
     style="fill: url(#linearGradient3456); fill-rule: nonzero; stroke: none; stroke-width: 1; stroke-linecap: round; stroke-linejoin: round; stroke-dasharray: none; stroke-dashoffset: 0; color: #ded7c7; clip-rule: nonzero; display: inline; overflow: visible; visibility: visible; opacity: 1; isolation: auto; mix-blend-mode: normal; color-interpolation: sRGB; color-interpolation-filters: linearRGB; solid-color: #ded7c7; solid-opacity: 1; fill-opacity: 1; stroke-miterlimit: 10; stroke-opacity: 1; marker: none; color-rendering: auto; image-rendering: auto; shape-rendering: auto; text-rendering: auto; enable-background: accumulate"
     sodipodi:nodetypes="ccccc" />
  <path
     sodipodi:nodetypes="ccccc"
     inkscape:connector-curvature="0"
     id="path3404"
     d="M 1000 400 l 200 0 l 0 200 l -200 0 z"
     style="fill: url(#linearGradient3420); fill-rule: nonzero; stroke: none; stroke-width: 1; stroke-linecap: round; stroke-linejoin: round; stroke-dasharray: none; stroke-dashoffset: 0; color: #ded7c7; clip-rule: nonzero; display: inline; overflow: visible; visibility: visible; opacity: 1; isolation: auto; mix-blend-mode: normal; color-interpolation: sRGB; color-interpolation-filters: linearRGB; solid-color: #ded7c7; solid-opacity: 1; fill-opacity: 1; stroke-miterlimit: 10; stroke-opacity: 1; marker: none; color-rendering: auto; image-rendering: auto; shape-rendering: auto; text-rendering: auto; enable-background: accumulate" />
  <path
     inkscape:connector-curvature="0"
     id="path4453"
     d="M 800 400 l 200 0 l 0 200 l -200 0 z"
     style="fill: url(#linearGradient4587); fill-rule: nonzero; stroke: none; stroke-width: 1; stroke-linecap: round; stroke-linejoin: round; stroke-dasharray: none; stroke-dashoffset: 0; color: #ded7c7; clip-rule: nonzero; display: inline; overflow: visible; visibility: visible; opacity: 1; isolation: auto; mix-blend-mode: normal; color-interpolation: sRGB; color-interpolation-filters: linearRGB; solid-color: #ded7c7; solid-opacity: 1; fill-opacity: 1; stroke-miterlimit: 10; stroke-opacity: 1; marker: none; color-rendering: auto; image-rendering: auto; shape-rendering: auto; text-rendering: auto; enable-background: accumulate"
     sodipodi:nodetypes="ccccc" />
  <path
     style="fill: url(#linearGradient3458); fill-rule: nonzero; stroke: none; stroke-width: 1; stroke-linecap: round; stroke-linejoin: round; stroke-dasharray: none; stroke-dashoffset: 0; color: #ded7c7; clip-rule: nonzero; display: inline; overflow: visible; visibility: visible; opacity: 1; isolation: auto; mix-blend-mode: normal; color-interpolation: sRGB; color-interpolation-filters: linearRGB; solid-color: #ded7c7; solid-opacity: 1; fill-opacity: 1; stroke-miterlimit: 10; stroke-opacity: 1; marker: none; color-rendering: auto; image-rendering: auto; shape-rendering: auto; text-rendering: auto; enable-background: accumulate"
     d="M 600 400 l 200 0 l 0 200 l -200 0 z"
     id="path3442"
     inkscape:connector-curvature="0"
     sodipodi:nodetypes="ccccc" />
  <path
     sodipodi:nodetypes="ccccc"
     style="fill: url(#linearGradient3422); fill-rule: nonzero; stroke: none; stroke-width: 1; stroke-linecap: round; stroke-linejoin: round; stroke-dasharray: none; stroke-dashoffset: 0; color: #ded7c7; clip-rule: nonzero; display: inline; overflow: visible; visibility: visible; opacity: 1; isolation: auto; mix-blend-mode: normal; color-interpolation: sRGB; color-interpolation-filters: linearRGB; solid-color: #ded7c7; solid-opacity: 1; fill-opacity: 1; stroke-miterlimit: 10; stroke-opacity: 1; marker: none; color-rendering: auto; image-rendering: auto; shape-rendering: auto; text-rendering: auto; enable-background: accumulate"
     d="M 400 400 l 200 0 l 0 200 l -200 0 z"
     id="path3406"
     inkscape:connector-curvature="0" />
  <path
     style="fill: url(#linearGradient4649); fill-rule: nonzero; stroke: none; stroke-width: 1; stroke-linecap: round; stroke-linejoin: round; stroke-dasharray: none; stroke-dashoffset: 0; color: #ded7c7; clip-rule: nonzero; display: inline; overflow: visible; visibility: visible; opacity: 1; isolation: auto; mix-blend-mode: normal; color-interpolation: sRGB; color-interpolation-filters: linearRGB; solid-color: #ded7c7; solid-opacity: 1; fill-opacity: 1; stroke-miterlimit: 10; stroke-opacity: 1; marker: none; color-rendering: auto; image-rendering: auto; shape-rendering: auto; text-rendering: auto; enable-background: accumulate"
     d="M 200 400 l 200 0 l 0 200 l -200 0 z"
     id="path4647"
     inkscape:connector-curvature="0"
     sodipodi:nodetypes="ccccc" />
  <path
     inkscape:connector-curvature="0"
     id="path4417"
     d="M 0 400 l 200 0 l 0 200 l -200 0 z"
     style="fill: #ded7c7; fill-rule: nonzero; stroke: none; stroke-width: 1; stroke-linecap: round; stroke-linejoin: round; stroke-dasharray: none; stroke-dashoffset: 0; color: #ded7c7; clip-rule: nonzero; display: inline; overflow: visible; visibility: visible; opacity: 1; isolation: auto; mix-blend-mode: normal; color-interpolation: sRGB; color-interpolation-filters: linearRGB; solid-color: #ded7c7; solid-opacity: 1; fill-opacity: 1; stroke-miterlimit: 10; stroke-opacity: 1; marker: none; color-rendering: auto; image-rendering: auto; shape-rendering: auto; text-rendering: auto; enable-background: accumulate"
     sodipodi:nodetypes="ccccc" />
  <path
     style="fill: url(#linearGradient3460); fill-rule: nonzero; stroke: none; stroke-width: 1; stroke-linecap: round; stroke-linejoin: round; stroke-dasharray: none; stroke-dashoffset: 0; color: #ded7c7; clip-rule: nonzero; display: inline; overflow: visible; visibility: visible; opacity: 1; isolation: auto; mix-blend-mode: normal; color-interpolation: sRGB; color-interpolation-filters: linearRGB; solid-color: #ded7c7; solid-opacity: 1; fill-opacity: 1; stroke-miterlimit: 10; stroke-opacity: 1; marker: none; color-rendering: auto; image-rendering: auto; shape-rendering: auto; text-rendering: auto; enable-background: accumulate"
     d="M 1200 200 l 200 0 l 0 200 l -200 0 z"
     id="path3444"
     inkscape:connector-curvature="0"
     sodipodi:nodetypes="ccccc" />
  <path
     sodipodi:nodetypes="ccccc"
     style="fill: url(#linearGradient3432); fill-rule: nonzero; stroke: none; stroke-width: 1; stroke-linecap: round; stroke-linejoin: round; stroke-dasharray: none; stroke-dashoffset: 0; color: #ded7c7; clip-rule: nonzero; display: inline; overflow: visible; visibility: visible; opacity: 1; isolation: auto; mix-blend-mode: normal; color-interpolation: sRGB; color-interpolation-filters: linearRGB; solid-color: #ded7c7; solid-opacity: 1; fill-opacity: 1; stroke-miterlimit: 10; stroke-opacity: 1; marker: none; color-rendering: auto; image-rendering: auto; shape-rendering: auto; text-rendering: auto; enable-background: accumulate"
     d="M 1000 200 l 200 0 l 0 200 l -200 0 z"
     id="path3416"
     inkscape:connector-curvature="0" />
  <path
     style="fill: url(#linearGradient4501); fill-rule: nonzero; stroke: none; stroke-width: 1; stroke-linecap: round; stroke-linejoin: round; stroke-dasharray: none; stroke-dashoffset: 0; color: #ded7c7; clip-rule: nonzero; display: inline; overflow: visible; visibility: visible; opacity: 1; isolation: auto; mix-blend-mode: normal; color-interpolation: sRGB; color-interpolation-filters: linearRGB; solid-color: #ded7c7; solid-opacity: 1; fill-opacity: 1; stroke-miterlimit: 10; stroke-opacity: 1; marker: none; color-rendering: auto; image-rendering: auto; shape-rendering: auto; text-rendering: auto; enable-background: accumulate"
     d="M 800 200 l 200 0 l 0 200 l -200 0 z"
     id="path4425"
     inkscape:connector-curvature="0"
     sodipodi:nodetypes="ccccc" />
  <path
     style="fill: url(#linearGradient3462); fill-rule: nonzero; stroke: none; stroke-width: 1; stroke-linecap: round; stroke-linejoin: round; stroke-dasharray: none; stroke-dashoffset: 0; color: #ded7c7; clip-rule: nonzero; display: inline; overflow: visible; visibility: visible; opacity: 1; isolation: auto; mix-blend-mode: normal; color-interpolation: sRGB; color-interpolation-filters: linearRGB; solid-color: #ded7c7; solid-opacity: 1; fill-opacity: 1; stroke-miterlimit: 10; stroke-opacity: 1; marker: none; color-rendering: auto; image-rendering: auto; shape-rendering: auto; text-rendering: auto; enable-background: accumulate"
     d="M 600 200 l 200 0 l 0 200 l -200 0 z"
     id="path3446"
     inkscape:connector-curvature="0"
     sodipodi:nodetypes="ccccc" />
  <path
     sodipodi:nodetypes="ccccc"
     style="fill: url(#linearGradient3434); fill-rule: nonzero; stroke: none; stroke-width: 1; stroke-linecap: round; stroke-linejoin: round; stroke-dasharray: none; stroke-dashoffset: 0; color: #ded7c7; clip-rule: nonzero; display: inline; overflow: visible; visibility: visible; opacity: 1; isolation: auto; mix-blend-mode: normal; color-interpolation: sRGB; color-interpolation-filters: linearRGB; solid-color: #ded7c7; solid-opacity: 1; fill-opacity: 1; stroke-miterlimit: 10; stroke-opacity: 1; marker: none; color-rendering: auto; image-rendering: auto; shape-rendering: auto; text-rendering: auto; enable-background: accumulate"
     d="M 400 200 l 200 0 l 0 200 l -200 0 z"
     id="path3418"
     inkscape:connector-curvature="0" />
  <path
     style="fill: url(#linearGradient4533); fill-rule: nonzero; stroke: none; stroke-width: 1; stroke-linecap: round; stroke-linejoin: round; stroke-dasharray: none; stroke-dashoffset: 0; color: #ded7c7; clip-rule: nonzero; display: inline; overflow: visible; visibility: visible; opacity: 1; isolation: auto; mix-blend-mode: normal; color-interpolation: sRGB; color-interpolation-filters: linearRGB; solid-color: #ded7c7; solid-opacity: 1; fill-opacity: 1; stroke-miterlimit: 10; stroke-opacity: 1; marker: none; color-rendering: auto; image-rendering: auto; shape-rendering: auto; text-rendering: auto; enable-background: accumulate"
     d="M 200 200 l 200 0 l 0 200 l -200 0 z"
     id="path4433"
     inkscape:connector-curvature="0"
     sodipodi:nodetypes="ccccc" />
  <path
     sodipodi:nodetypes="ccccc"
     inkscape:connector-curvature="0"
     id="path4202"
     d="M 0 200 l 200 0 l 0 200 l -200 0 z"
     style="fill: url(#linearGradient4204); fill-rule: nonzero; stroke: none; stroke-width: 1; stroke-linecap: round; stroke-linejoin: round; stroke-dasharray: none; stroke-dashoffset: 0; color: #ded7c7; clip-rule: nonzero; display: inline; overflow: visible; visibility: visible; opacity: 1; isolation: auto; mix-blend-mode: normal; color-interpolation: sRGB; color-interpolation-filters: linearRGB; solid-color: #ded7c7; solid-opacity: 1; fill-opacity: 1; stroke-miterlimit: 10; stroke-opacity: 1; marker: none; color-rendering: auto; image-rendering: auto; shape-rendering: auto; text-rendering: auto; enable-background: accumulate" />
  <path
     inkscape:connector-curvature="0"
     id="path3448"
     d="M 1200 0 l 200 0 l 0 200 l -200 0 z"
     style="fill: url(#linearGradient3464); fill-rule: nonzero; stroke: none; stroke-width: 1; stroke-linecap: round; stroke-linejoin: round; stroke-dasharray: none; stroke-dashoffset: 0; color: #ded7c7; clip-rule: nonzero; display: inline; overflow: visible; visibility: visible; opacity: 1; isolation: auto; mix-blend-mode: normal; color-interpolation: sRGB; color-interpolation-filters: linearRGB; solid-color: #ded7c7; solid-opacity: 1; fill-opacity: 1; stroke-miterlimit: 10; stroke-opacity: 1; marker: none; color-rendering: auto; image-rendering: auto; shape-rendering: auto; text-rendering: auto; enable-background: accumulate"
     sodipodi:nodetypes="ccccc" />
  <path
     sodipodi:nodetypes="ccccc"
     inkscape:connector-curvature="0"
     id="path3412"
     d="M 1000 0 l 200 0 l 0 200 l -200 0 z"
     style="fill: url(#linearGradient3428); fill-rule: nonzero; stroke: none; stroke-width: 1; stroke-linecap: round; stroke-linejoin: round; stroke-dasharray: none; stroke-dashoffset: 0; color: #ded7c7; clip-rule: nonzero; display: inline; overflow: visible; visibility: visible; opacity: 1; isolation: auto; mix-blend-mode: normal; color-interpolation: sRGB; color-interpolation-filters: linearRGB; solid-color: #ded7c7; solid-opacity: 1; fill-opacity: 1; stroke-miterlimit: 10; stroke-opacity: 1; marker: none; color-rendering: auto; image-rendering: auto; shape-rendering: auto; text-rendering: auto; enable-background: accumulate" />
  <path
     inkscape:connector-curvature="0"
     id="path4429"
     d="M 800 0 l 200 0 l 0 200 l -200 0 z"
     style="fill: url(#linearGradient4517); fill-rule: nonzero; stroke: none; stroke-width: 1; stroke-linecap: round; stroke-linejoin: round; stroke-dasharray: none; stroke-dashoffset: 0; color: #ded7c7; clip-rule: nonzero; display: inline; overflow: visible; visibility: visible; opacity: 1; isolation: auto; mix-blend-mode: normal; color-interpolation: sRGB; color-interpolation-filters: linearRGB; solid-color: #ded7c7; solid-opacity: 1; fill-opacity: 1; stroke-miterlimit: 10; stroke-opacity: 1; marker: none; color-rendering: auto; image-rendering: auto; shape-rendering: auto; text-rendering: auto; enable-background: accumulate"
     sodipodi:nodetypes="ccccc" />
  <path
     inkscape:connector-curvature="0"
     id="path3450"
     d="M 600 0 l 200 0 l 0 200 l -200 0 z"
     style="fill: url(#linearGradient3466); fill-rule: nonzero; stroke: none; stroke-width: 1; stroke-linecap: round; stroke-linejoin: round; stroke-dasharray: none; stroke-dashoffset: 0; color: #ded7c7; clip-rule: nonzero; display: inline; overflow: visible; visibility: visible; opacity: 1; isolation: auto; mix-blend-mode: normal; color-interpolation: sRGB; color-interpolation-filters: linearRGB; solid-color: #ded7c7; solid-opacity: 1; fill-opacity: 1; stroke-miterlimit: 10; stroke-opacity: 1; marker: none; color-rendering: auto; image-rendering: auto; shape-rendering: auto; text-rendering: auto; enable-background: accumulate"
     sodipodi:nodetypes="ccccc" />
  <path
     sodipodi:nodetypes="ccccc"
     inkscape:connector-curvature="0"
     id="path3414"
     d="M 400 0 l 200 0 l 0 200 l -200 0 z"
     style="fill: url(#linearGradient3430); fill-rule: nonzero; stroke: none; stroke-width: 1; stroke-linecap: round; stroke-linejoin: round; stroke-dasharray: none; stroke-dashoffset: 0; color: #ded7c7; clip-rule: nonzero; display: inline; overflow: visible; visibility: visible; opacity: 1; isolation: auto; mix-blend-mode: normal; color-interpolation: sRGB; color-interpolation-filters: linearRGB; solid-color: #ded7c7; solid-opacity: 1; fill-opacity: 1; stroke-miterlimit: 10; stroke-opacity: 1; marker: none; color-rendering: auto; image-rendering: auto; shape-rendering: auto; text-rendering: auto; enable-background: accumulate" />
  <path
     inkscape:connector-curvature="0"
     id="path4437"
     d="M 200 0 l 200 0 l 0 200 l -200 0 z"
     style="fill: url(#linearGradient4545); fill-rule: nonzero; stroke: none; stroke-width: 1; stroke-linecap: round; stroke-linejoin: round; stroke-dasharray: none; stroke-dashoffset: 0; color: #ded7c7; clip-rule: nonzero; display: inline; overflow: visible; visibility: visible; opacity: 1; isolation: auto; mix-blend-mode: normal; color-interpolation: sRGB; color-interpolation-filters: linearRGB; solid-color: #ded7c7; solid-opacity: 1; fill-opacity: 1; stroke-miterlimit: 10; stroke-opacity: 1; marker: none; color-rendering: auto; image-rendering: auto; shape-rendering: auto; text-rendering: auto; enable-background: accumulate"
     sodipodi:nodetypes="ccccc" />
  <path
     sodipodi:nodetypes="ccccc"
     style="fill: #3f3009; fill-rule: nonzero; stroke: none; stroke-width: 1; stroke-linecap: round; stroke-linejoin: round; stroke-dasharray: none; stroke-dashoffset: 0; color: #ded7c7; clip-rule: nonzero; display: inline; overflow: visible; visibility: visible; opacity: 1; isolation: auto; mix-blend-mode: normal; color-interpolation: sRGB; color-interpolation-filters: linearRGB; solid-color: #ded7c7; solid-opacity: 1; fill-opacity: 1; stroke-miterlimit: 10; stroke-opacity: 1; marker: none; color-rendering: auto; image-rendering: auto; shape-rendering: auto; text-rendering: auto; enable-background: accumulate"
     d="M 0 0 l 200 0 l 0 200 l -200 0 z"
     id="path4200"
     inkscape:connector-curvature="0" />
</svg>
